de/mike/training/junit5/templates/TestTemplateDemo.class
de/mike/training/junit5/DisplayNameDemos.class
de/mike/training/junit5/extensions/MyPersonalBeforeEachExtension.class
de/mike/training/junit5/extensions/PersonAndAddressResolver.class
de/mike/training/junit5/DynamicTestsDemo.class
de/mike/training/junit5/TestInfoDemo.class
de/mike/training/junit5/JUnit5By4Demo.class
de/mike/training/junit5/IgnoredTestDemo.class
de/mike/training/junit5/FirstTest.class
de/mike/training/junit5/TaggingDemo.class
de/mike/training/junit5/BeansTestDemo.class
de/mike/training/junit5/AssertionsDemo.class
de/mike/training/junit5/DynamicTestsDemo$1.class
de/mike/training/junit5/TestLifecycleDemo.class
de/mike/training/junit5/ExtensionDemo.class
de/mike/training/junit5/templates/MyTestTemplateInvocationContextProvider$1.class
de/mike/training/junit5/extensions/AdditionlBeforeEachExtension.class
de/mike/training/junit5/beans/TestReporterDemo.class
de/mike/training/junit5/templates/MyTestTemplateInvocationContextProvider$1$1.class
de/mike/training/junit5/TimeoutDemo.class
de/mike/training/junit5/templates/MyTestTemplateInvocationContextProvider.class
